^C:\USERS\FERILUCE\DROPBOX\PCG\EROSIONAGENT\EROSIONAGENT\DEBUG\EROSIONAGENT.OBJ|C:\USERS\FERILUCE\DROPBOX\PCG\EROSIONAGENT\EROSIONAGENT\DEBUG\PERLINNOISE.OBJ|C:\USERS\FERILUCE\DROPBOX\PCG\EROSIONAGENT\EROSIONAGENT\DEBUG\RAWIO.OBJ|C:\USERS\FERILUCE\DROPBOX\PCG\EROSIONAGENT\EROSIONAGENT\DEBUG\TERRAINMODEL.OBJ|C:\USERS\FERILUCE\DROPBOX\PCG\EROSIONAGENT\EROSIONAGENT\DEBUG\WATERAGENT.OBJ
C:\PROGRAM FILES (X86)\WINDOWS KITS\8.0\LIB\WIN8\UM\X86\KERNEL32.LIB
C:\PROGRAM FILES (X86)\WINDOWS KITS\8.0\LIB\WIN8\UM\X86\USER32.LIB
C:\PROGRAM FILES (X86)\WINDOWS KITS\8.0\LIB\WIN8\UM\X86\GDI32.LIB
C:\PROGRAM FILES (X86)\WINDOWS KITS\8.0\LIB\WIN8\UM\X86\WINSPOOL.LIB
C:\PROGRAM FILES (X86)\WINDOWS KITS\8.0\LIB\WIN8\UM\X86\COMDLG32.LIB
C:\PROGRAM FILES (X86)\WINDOWS KITS\8.0\LIB\WIN8\UM\X86\ADVAPI32.LIB
C:\PROGRAM FILES (X86)\WINDOWS KITS\8.0\LIB\WIN8\UM\X86\SHELL32.LIB
C:\PROGRAM FILES (X86)\WINDOWS KITS\8.0\LIB\WIN8\UM\X86\OLE32.LIB
C:\PROGRAM FILES (X86)\WINDOWS KITS\8.0\LIB\WIN8\UM\X86\OLEAUT32.LIB
C:\PROGRAM FILES (X86)\WINDOWS KITS\8.0\LIB\WIN8\UM\X86\UUID.LIB
C:\PROGRAM FILES (X86)\WINDOWS KITS\8.0\LIB\WIN8\UM\X86\ODBC32.LIB
C:\PROGRAM FILES (X86)\WINDOWS KITS\8.0\LIB\WIN8\UM\X86\ODBCCP32.LIB
C:\USERS\FERILUCE\DROPBOX\PCG\EROSIONAGENT\EROSIONAGENT\DEBUG\EROSIONAGENT.OBJ
C:\USERS\FERILUCE\DROPBOX\PCG\EROSIONAGENT\EROSIONAGENT\DEBUG\PERLINNOISE.OBJ
C:\USERS\FERILUCE\DROPBOX\PCG\EROSIONAGENT\EROSIONAGENT\DEBUG\RAWIO.OBJ
C:\USERS\FERILUCE\DROPBOX\PCG\EROSIONAGENT\EROSIONAGENT\DEBUG\TERRAINMODEL.OBJ
C:\USERS\FERILUCE\DROPBOX\PCG\EROSIONAGENT\EROSIONAGENT\DEBUG\WATERAGENT.OBJ
C:\WINDOWS\SYSTEM32\TZRES.DLL
C:\WINDOWS\GLOBALIZATION\SORTING\SORTDEFAULT.NLS
C:\PROGRAM FILES (X86)\MICROSOFT VISUAL STUDIO 11.0\VC\LIB\MSVCPRTD.LIB
C:\PROGRAM FILES (X86)\MICROSOFT VISUAL STUDIO 11.0\VC\LIB\MSVCRTD.LIB
C:\PROGRAM FILES (X86)\MICROSOFT VISUAL STUDIO 11.0\VC\LIB\OLDNAMES.LIB
C:\PROGRAM FILES (X86)\MICROSOFT VISUAL STUDIO 11.0\VC\BIN\LINK.EXE
C:\WINDOWS\SYSTEM32\RSAENH.DLL
C:\PROGRAM FILES (X86)\WINDOWS KITS\8.0\BIN\X86\RC.EXE
C:\PROGRAM FILES (X86)\MICROSOFT VISUAL STUDIO 11.0\VC\BIN\CVTRES.EXE
